DATE,LXXRSA
2000-01-01,101.031209328988
2000-02-01,102.043406368887
2000-03-01,103.22469937878
2000-04-01,104.15939904180999
2000-05-01,104.924697913444
2000-06-01,105.69340721732
2000-07-01,106.324687399146
2000-08-01,106.96663274069999
2000-09-01,107.88678711710399
2000-10-01,108.808656720032
2000-11-01,109.983918640494
2000-12-01,110.716005169494
2001-01-01,112.031476319672
2001-02-01,112.90289923013701
2001-03-01,114.17849708235201
2001-04-01,114.636796362203
2001-05-01,115.257389456698
2001-06-01,115.73461172069099
2001-07-01,116.375632886365
2001-08-01,117.358519680417
2001-09-01,118.340089857677
2001-10-01,119.315659498276
2001-11-01,120.303205894659
2001-12-01,121.289619882668
2002-01-01,122.70650708764
2002-02-01,123.989520988243
2002-03-01,125.45607402182699
2002-04-01,126.85190232206999
2002-05-01,128.691986275473
2002-06-01,130.772306403778
2002-07-01,132.858718354908
2002-08-01,135.08522025696502
2002-09-01,137.236732795981
2002-10-01,139.723100537665
2002-11-01,141.824379807516
2002-12-01,143.982056687424
2003-01-01,145.752401494698
2003-02-01,147.308756656213
2003-03-01,148.88173954912202
2003-04-01,150.48556430768298
2003-05-01,152.288289955012
2003-06-01,154.062884741164
2003-07-01,157.016143237861
2003-08-01,160.104673506283
2003-09-01,163.588260101388
2003-10-01,167.056446281945
2003-11-01,170.757036709273
2003-12-01,174.784574582805
2004-01-01,178.77375304411598
2004-02-01,182.914950768218
2004-03-01,188.78667392658298
2004-04-01,194.50028451261102
2004-05-01,199.737766764523
2004-06-01,205.27867309841702
2004-07-01,209.297252291166
2004-08-01,211.149157649982
2004-09-01,212.717816070808
2004-10-01,213.86870267563302
2004-11-01,216.02231797482898
2004-12-01,218.129138446734
2005-01-01,221.47137218232498
2005-02-01,225.207359689395
2005-03-01,229.746953241442
2005-04-01,233.443615298302
2005-05-01,237.105505800856
2005-06-01,240.58339519840402
2005-07-01,244.262619783372
2005-08-01,248.283851629445
2005-09-01,252.84110496657902
2005-10-01,257.743227220091
2005-11-01,261.663203259488
2005-12-01,265.41911335229304
2006-01-01,268.20886483824796
2006-02-01,271.23384821739
2006-03-01,272.084490631465
2006-04-01,273.089453135931
2006-05-01,272.930820302778
2006-06-01,272.218230085145
2006-07-01,271.494061782701
2006-08-01,270.587686618065
2006-09-01,270.434942564077
2006-10-01,270.998196044182
2006-11-01,271.901818349707
2006-12-01,270.32168692747297
2007-01-01,270.804957160387
2007-02-01,270.136839242611
2007-03-01,268.74782431429696
2007-04-01,266.429638900883
2007-05-01,264.244854210506
2007-06-01,261.32303321042195
2007-07-01,258.489069396736
2007-08-01,254.84854595056703
2007-09-01,251.299342170187
2007-10-01,247.006441673109
2007-11-01,239.23269001418998
2007-12-01,233.113718068936
2008-01-01,226.112014845761
2008-02-01,217.77220450036097
2008-03-01,210.58217237369098
2008-04-01,205.10144249210398
2008-05-01,199.43353562869203
2008-06-01,195.133776692589
2008-07-01,190.676307291412
2008-08-01,186.649258751274
2008-09-01,181.845203925372
2008-10-01,178.066692306365
2008-11-01,174.94947303978
2008-12-01,171.443317354464
2009-01-01,167.831286252946
2009-02-01,165.54631984518298
2009-03-01,163.74318892198
2009-04-01,161.547152900463
2009-05-01,159.837750925831
2009-06-01,160.311472290293
2009-07-01,162.211236934839
2009-08-01,164.25833174117702
2009-09-01,165.528435442118
2009-10-01,166.887762971606
2009-11-01,168.915955370619
2009-12-01,171.584561582145
2010-01-01,174.441639170542
2010-02-01,174.467943012103
2010-03-01,173.676946189524
2010-04-01,174.040630875084
2010-05-01,175.157201497979
2010-06-01,174.79611851460098
2010-07-01,174.229849654053
2010-08-01,172.96575205957902
2010-09-01,172.787598059164
2010-10-01,172.593553737235
2010-11-01,172.68447309600103
2010-12-01,171.433640136542
2011-01-01,171.509902440437
2011-02-01,170.946636090704
2011-03-01,170.712007040451
2011-04-01,170.12979903081498
2011-05-01,169.202829996198
2011-06-01,168.559336818255
2011-07-01,167.96179074668
2011-08-01,166.921936485836
2011-09-01,165.725593207032
2011-10-01,164.28320101160298
2011-11-01,163.61061666313
2011-12-01,162.80369727651
2012-01-01,162.456571964916
2012-02-01,162.11069667241802
2012-03-01,162.34248610568199
2012-04-01,163.67859981849702
2012-05-01,165.540346514943
2012-06-01,167.25490692037098
2012-07-01,168.661652156161
2012-08-01,170.647002325151
2012-09-01,172.706626116889
2012-10-01,174.786217295827
2012-11-01,176.537214195322
2012-12-01,179.570930951154
2013-01-01,182.193101444069
2013-02-01,184.875674486889
2013-03-01,189.00195239339698
2013-04-01,193.85618172838198
2013-05-01,196.943009228757
2013-06-01,200.328352377066
2013-07-01,203.834911756461
2013-08-01,207.923322638229
2013-09-01,210.75588769502
2013-10-01,213.68042851260103
2013-11-01,215.065732762055
2013-12-01,216.15637626347902
2014-01-01,216.53806702177
2014-02-01,218.28807674427898
2014-03-01,220.187296285458
2014-04-01,220.496980528529
2014-05-01,220.82638838754602
2014-06-01,221.43719152654702
2014-07-01,222.020661562015
2014-08-01,222.07753663396701
2014-09-01,222.764743079752
2014-10-01,224.493076302029
2014-11-01,226.32955087046003
2014-12-01,227.99822479076
2015-01-01,228.215823583126
2015-02-01,230.33423736749
2015-03-01,231.73584857787898
2015-04-01,233.08907992782198
2015-05-01,234.202735842817
2015-06-01,235.078823042934
2015-07-01,235.593980465442
2015-08-01,236.175369622777
2015-09-01,237.261546265173
2015-10-01,238.587535987278
2015-11-01,240.13155150124803
2015-12-01,241.63191170192698
2016-01-01,243.435659509627
2016-02-01,245.285502747398
2016-03-01,245.986754154372
2016-04-01,246.38461312623798
2016-05-01,246.792619633638
2016-06-01,247.593695268792
2016-07-01,248.713380855079
2016-08-01,250.046340036318
2016-09-01,251.41861077982497
2016-10-01,252.084208025512
2016-11-01,253.26623656420898
2016-12-01,254.525744898133
2017-01-01,256.163835823734
2017-02-01,256.98735057535197
2017-03-01,258.58059221917597
2017-04-01,258.89848089729
2017-05-01,260.445946124983
2017-06-01,261.40552109172296
2017-07-01,264.009567754494
2017-08-01,265.31242436662103
2017-09-01,267.06425267018
2017-10-01,268.425773507914
2017-11-01,270.956814650047
2017-12-01,273.12025285231897
2018-01-01,275.018607167435
2018-02-01,277.615111536166
2018-03-01,279.053286301417
2018-04-01,280.00964551272097
2018-05-01,279.90882461727904
2018-06-01,280.75493608014
2018-07-01,280.775154339669
2018-08-01,281.656821034227
2018-09-01,281.884827987209
2018-10-01,282.840719642902
2018-11-01,282.433069108378
2018-12-01,283.169596350993
2019-01-01,282.450233064422
2019-02-01,282.291119932142
2019-03-01,282.73323539997995
2019-04-01,283.819037382375
2019-05-01,285.06624586942996
2019-06-01,284.754241926335
2019-07-01,283.790328063373
2019-08-01,284.43941695118696
2019-09-01,286.514312749936
2019-10-01,288.454608096112
2019-11-01,290.062566747821
2019-12-01,290.41771674298803
2020-01-01,291.98226774226396
